[
  {
    "id": "monitor1",
    "status": "dynamic",
    "label": "Left screen",
    "iconType":
      {
        "id": "monitor1",
        "type": "monitor"
      },
    "position": {
      "top": "49%",
      "right": "58%"
    },
    "media": "video",
    "testerCaption": "By clicking on the 'test' button, an image will be sent to the left screen."
  }, {
    "id": "monitor2",
    "status": "dynamic",
    "label": "Right screen",
    "iconType":
      {
        "id": "monitor2",
        "type": "monitor"
      },
    "position": {
      "top": "49%",
      "right": "38%"
    },
    "media": "video",
    "testerCaption": "By clicking on the 'test' button, an image will be sent to the right screen."
  }, {
    "id": "videoCamera",
    "status": "dynamic",
    "label": "Camera",
    "iconType":
      {
        "id": "videoCamera",
        "type": "videoCamera"
      },
    "position": {
      "top": "26%",
      "right": "47.5%"
    },
    "media": "video",
    "testerCaption": "By clicking on the 'test' button, the camera image will be displayed in the thumbnail."
  }, {
    "id": "microphone",
    "status": "dynamic",
    "label": "Microphone",
    "iconType":
      {
        "id": "microphone",
        "type": "mic"
      },
    "position": {
      "top": "68%",
      "right": "37%"
    },
    "media": "audio",
    "testerCaption": "By clicking on the 'test' button, speak into the microphone to view the sound signal."
  }, {
    "id": "speaker1",
    "status": "dynamic",
    "label": "Left speaker",
    "iconType":
      {
        "id": "speaker1",
        "type": "speakerLight"
      },
    "position": {
      "top": "49%",
      "right": "66%"
    },
    "media": "audio",
    "testerCaption": "By clicking on the 'test' button, a sound signal will be sent to the left speaker."
  }, {
    "id": "speaker2",
    "status": "dynamic",
    "label": "Right speaker",
    "iconType":
      {
        "id": "speaker2",
        "type": "speakerLight"
    },
    "position": {
      "top": "49%",
      "right": "30%"
    },
    "media": "audio",
    "testerCaption": "By clicking on the 'test' button, a sound signal will be sent to the right speaker."
  }
]
